{
    "prepare_queue": {
        "installed": [],
        "uninstalled": []
    },
    "config_munge": {
        "files": {
            "config.xml": {
                "parents": {
                    "/*": [
                        {
                            "xml": "<feature name=\"StreamingMedia\"><param name=\"ios-package\" value=\"StreamingMedia\" /></feature>",
                            "count": 1
                        },
                        {
                            "xml": "<feature name=\"InAppBrowser\"><param name=\"ios-package\" value=\"CDVInAppBrowser\" /></feature>",
                            "count": 1
                        },
                        {
                            "xml": "<feature name=\"SQLitePlugin\"><param name=\"ios-package\" value=\"SQLitePlugin\" /></feature>",
                            "count": 1
                        },
                        {
                            "xml": "<feature name=\"Device\"><param name=\"ios-package\" value=\"CDVDevice\" /></feature>",
                            "count": 1
                        },
                        {
                            "xml": "<feature name=\"YoikScreenOrientation\"><param name=\"ios-package\" value=\"YoikScreenOrientation\" /></feature>",
                            "count": 1
                        }
                    ]
                }
            },
            "*-Info.plist": {
                "parents": {
                    "UISupportedInterfaceOrientations": [],
                    "UISupportedInterfaceOrientations~ipad": [],
                    "NSMicrophoneUsageDescription": []
                }
            }
        }
    },
    "installed_plugins": {
        "com.hutchind.cordova.plugins.streamingmedia": {
            "PACKAGE_NAME": "com.DamedashStudios.com"
        },
        "cordova-plugin-inappbrowser": {
            "PACKAGE_NAME": "com.DamedashStudios.com"
        },
        "cordova-sqlite-storage": {
            "PACKAGE_NAME": "com.DamedashStudios.com"
        },
        "cordova-plugin-whitelist": {
            "PACKAGE_NAME": "com.DamedashStudios.com"
        },
        "cordova-plugin-device": {
            "PACKAGE_NAME": "com.DamedashStudios.com"
        },
        "cordova-plugin-screen-orientation": {
            "PACKAGE_NAME": "com.DamedashStudios.com"
        }
    },
    "dependent_plugins": {},
    "modules": [
        {
            "id": "com.hutchind.cordova.plugins.streamingmedia.StreamingMedia",
            "file": "plugins/com.hutchind.cordova.plugins.streamingmedia/www/StreamingMedia.js",
            "pluginId": "com.hutchind.cordova.plugins.streamingmedia",
            "clobbers": [
                "streamingMedia"
            ]
        },
        {
            "id": "cordova-plugin-inappbrowser.inappbrowser",
            "file": "plugins/cordova-plugin-inappbrowser/www/inappbrowser.js",
            "pluginId": "cordova-plugin-inappbrowser",
            "clobbers": [
                "cordova.InAppBrowser.open",
                "window.open"
            ]
        },
        {
            "id": "cordova-sqlite-storage.SQLitePlugin",
            "file": "plugins/cordova-sqlite-storage/www/SQLitePlugin.js",
            "pluginId": "cordova-sqlite-storage",
            "clobbers": [
                "SQLitePlugin"
            ]
        },
        {
            "id": "cordova-plugin-device.device",
            "file": "plugins/cordova-plugin-device/www/device.js",
            "pluginId": "cordova-plugin-device",
            "clobbers": [
                "device"
            ]
        },
        {
            "id": "cordova-plugin-screen-orientation.screenorientation",
            "file": "plugins/cordova-plugin-screen-orientation/www/screenorientation.js",
            "pluginId": "cordova-plugin-screen-orientation",
            "clobbers": [
                "cordova.plugins.screenorientation"
            ]
        },
        {
            "id": "cordova-plugin-screen-orientation.screenorientation.ios",
            "file": "plugins/cordova-plugin-screen-orientation/www/screenorientation.ios.js",
            "pluginId": "cordova-plugin-screen-orientation",
            "merges": [
                "cordova.plugins.screenorientation"
            ]
        }
    ],
    "plugin_metadata": {
        "com.hutchind.cordova.plugins.streamingmedia": "0.1.4",
        "cordova-plugin-inappbrowser": "1.6.0-dev",
        "cordova-sqlite-storage": "1.5.1",
        "cordova-plugin-whitelist": "1.3.0",
        "cordova-plugin-device": "1.1.5-dev",
        "cordova-plugin-screen-orientation": "1.4.2"
    }
}