{
    "com.hutchind.cordova.plugins.streamingmedia": {
        "source": {
            "type": "git",
            "url": "https://github.com/nchutchind/Streaming-Media-Cordova-Plugin.git",
            "subdir": "."
        },
        "is_top_level": true,
        "variables": {}
    },
    "cordova-plugin-inappbrowser": {
        "source": {
            "type": "git",
            "url": "https://git-wip-us.apache.org/repos/asf/cordova-plugin-inappbrowser.git",
            "subdir": "."
        },
        "is_top_level": true,
        "variables": {}
    },
    "cordova-sqlite-storage": {
        "source": {
            "type": "git",
            "url": "https://github.com/litehelpers/Cordova-sqlite-storage.git",
            "subdir": "."
        },
        "is_top_level": true,
        "variables": {}
    },
    "cordova-plugin-whitelist": {
        "source": {
            "type": "registry",
            "id": "cordova-plugin-whitelist@1"
        },
        "is_top_level": true,
        "variables": {}
    },
    "cordova-plugin-device": {
        "source": {
            "type": "git",
            "url": "https://git-wip-us.apache.org/repos/asf/cordova-plugin-device.git",
            "subdir": "."
        },
        "is_top_level": true,
        "variables": {}
    },
    "cordova-plugin-screen-orientation": {
        "source": {
            "type": "registry",
            "id": "cordova-plugin-screen-orientation"
        },
        "is_top_level": true,
        "variables": {}
    },
    "cordova-plugin-file": {
        "source": {
            "type": "registry",
            "id": "cordova-plugin-file"
        },
        "is_top_level": false,
        "variables": {}
    },
    "cordova-plugin-compat": {
        "source": {
            "type": "registry",
            "id": "cordova-plugin-compat"
        },
        "is_top_level": false,
        "variables": {}
    }
}