{
  "images" : [
    {
      "idiom" : "iphone",
      "size" : "20x20",
      "scale" : "2x"
    },
    {
      "idiom" : "iphone",
      "size" : "20x20",
      "scale" : "3x"
    },
    {
      "size" : "29x29",
      "idiom" : "iphone",
      "filename" : "29.png",
      "scale" : "1x"
    },
    {
      "size" : "29x29",
      "idiom" : "iphone",
      "filename" : "58.png",
      "scale" : "2x"
    },
    {
      "size" : "29x29",
      "idiom" : "iphone",
      "filename" : "87.png",
      "scale" : "3x"
    },
    {
      "size" : "40x40",
      "idiom" : "iphone",
      "filename" : "40.png",
      "scale" : "2x"
    },
    {
      "size" : "40x40",
      "idiom" : "iphone",
      "filename" : "80.png",
      "scale" : "3x"
    },
    {
      "size" : "57x57",
      "idiom" : "iphone",
      "filename" : "57.png",
      "scale" : "1x"
    },
    {
      "size" : "57x57",
      "idiom" : "iphone",
      "filename" : "114.png",
      "scale" : "2x"
    },
    {
      "size" : "60x60",
      "idiom" : "iphone",
      "filename" : "120.png",
      "scale" : "2x"
    },
    {
      "size" : "60x60",
      "idiom" : "iphone",
      "filename" : "180.png",
      "scale" : "3x"
    },
    {
      "idiom" : "ipad",
      "size" : "20x20",
      "scale" : "1x"
    },
    {
      "size" : "20x20",
      "idiom" : "ipad",
      "filename" : "40-1.png",
      "scale" : "2x"
    },
    {
      "size" : "29x29",
      "idiom" : "ipad",
      "filename" : "29-1.png",
      "scale" : "1x"
    },
    {
      "size" : "29x29",
      "idiom" : "ipad",
      "filename" : "58-1.png",
      "scale" : "2x"
    },
    {
      "size" : "40x40",
      "idiom" : "ipad",
      "filename" : "40-2.png",
      "scale" : "1x"
    },
    {
      "size" : "40x40",
      "idiom" : "ipad",
      "filename" : "80-1.png",
      "scale" : "2x"
    },
    {
      "size" : "50x50",
      "idiom" : "ipad",
      "filename" : "50.png",
      "scale" : "1x"
    },
    {
      "size" : "50x50",
      "idiom" : "ipad",
      "filename" : "100.png",
      "scale" : "2x"
    },
    {
      "size" : "72x72",
      "idiom" : "ipad",
      "filename" : "72.png",
      "scale" : "1x"
    },
    {
      "size" : "72x72",
      "idiom" : "ipad",
      "filename" : "144.png",
      "scale" : "2x"
    },
    {
      "size" : "76x76",
      "idiom" : "ipad",
      "filename" : "76.png",
      "scale" : "1x"
    },
    {
      "size" : "76x76",
      "idiom" : "ipad",
      "filename" : "152.png",
      "scale" : "2x"
    },
    {
      "size" : "83.5x83.5",
      "idiom" : "ipad",
      "filename" : "167.png",
      "scale" : "2x"
    },
    {
      "size" : "24x24",
      "idiom" : "watch",
      "scale" : "2x",
      "role" : "notificationCenter",
      "subtype" : "38mm"
    },
    {
      "size" : "27.5x27.5",
      "idiom" : "watch",
      "scale" : "2x",
      "role" : "notificationCenter",
      "subtype" : "42mm"
    },
    {
      "size" : "29x29",
      "idiom" : "watch",
      "role" : "companionSettings",
      "scale" : "2x"
    },
    {
      "size" : "29x29",
      "idiom" : "watch",
      "role" : "companionSettings",
      "scale" : "3x"
    },
    {
      "size" : "40x40",
      "idiom" : "watch",
      "scale" : "2x",
      "role" : "appLauncher",
      "subtype" : "38mm"
    },
    {
      "size" : "44x44",
      "idiom" : "watch",
      "scale" : "2x",
      "role" : "longLook",
      "subtype" : "42mm"
    },
    {
      "size" : "86x86",
      "idiom" : "watch",
      "scale" : "2x",
      "role" : "quickLook",
      "subtype" : "38mm"
    },
    {
      "size" : "98x98",
      "idiom" : "watch",
      "scale" : "2x",
      "role" : "quickLook",
      "subtype" : "42mm"
    }
  ],
  "info" : {
    "version" : 1,
    "author" : "xcode"
  }
}